<svg width="118" height="56" viewBox="0 0 118 56" fill="none" xmlns="http://www.w3.org/2000/svg">
<path d="M106.177 31.866C103.807 32.5069 106.724 27.0943 106.724 27.0943L110.736 18.6552L102.168 19.1141C91.594 19.2062 87.6755 24.9841 87.6755 24.9841C83.5697 29.9392 80.9262 30.3963 80.9262 30.3963C78.4663 30.7638 80.1086 28.3799 80.1086 28.3799L84.7546 19.9387C85.5758 18.5632 84.4809 18.8386 84.4809 18.8386L79.7413 19.7553C78.56 19.9387 79.2875 19.2979 79.2875 19.2979L84.0271 13.3344C85.212 11.7751 83.206 12.5997 83.206 12.5997L74.4542 15.1691L72.2681 18.9307C70.0784 21.6818 72.8155 20.7655 72.8155 20.7655C62.0073 32.8312 61.8164 29.5507 61.8164 29.5507C59.6555 28.7601 66.3364 18.8687 66.3364 18.8687L58.6867 20.1225C54.5593 29.0229 49.7549 27.829 49.7549 27.829C46.1065 27.3698 51.851 19.1141 51.851 19.1141L45.1017 20.0308C40.7798 24.3839 32.2514 28.5637 32.2514 28.5637L38.0319 18.6723L29.6079 20.49L25.1419 27.186C22.9522 30.4905 21.5836 32.3231 21.5836 32.3231C20.7661 32.9661 17.2114 36.0847 17.2114 36.0847C13.473 39.205 4.08375 51.0381 4.08375 51.0381C2.16773 53.6076 7.82215 51.4057 7.82215 51.4057L14.5678 49.5709C17.1177 48.9279 18.9437 47.0011 18.9437 47.0011L28.8767 34.5254C30.7928 33.9741 41.3669 27.7373 41.3669 27.7373C38.4496 36.6356 44.7415 36.0847 44.7415 36.0847C49.2975 36.0847 54.6746 32.7823 54.6746 32.7823C55.222 37.0028 58.6867 35.9926 58.6867 35.9926C65.4324 35.7193 76.0965 21.4063 76.0965 21.4063L77.3715 21.2247L73.8168 27.0943C68.256 36.5435 74.4542 36.1764 74.4542 36.1764C79.5612 36.0847 86.1232 31.4985 86.1232 31.4985C86.487 36.7273 90.6828 36.0847 90.6828 36.0847C94.7849 36.0847 99.6146 32.5069 99.6146 32.5069C99.8883 35.9009 103.259 35.9926 103.259 35.9926C106.814 35.9926 109.004 31.1313 109.004 31.1313L108.456 30.8555C107.271 31.7722 106.177 31.866 106.177 31.866ZM100.252 25.2596C98.9771 27.7373 95.6025 29.3883 95.6025 29.3883C89.4979 30.58 93.5964 25.6267 93.5964 25.6267C95.2387 23.9757 97.5185 23.1511 97.5185 23.1511C102.712 21.6817 100.252 25.2596 100.252 25.2596Z" fill="#FF0000"/>
<path d="M36.991 5.07918L43.373 3.79319C43.373 3.79319 44.9216 3.24442 43.8267 5.07918C43.8267 5.07918 41.4569 10.8567 36.991 11.5914C36.991 11.5914 32.7052 12.7835 33.8001 9.57327C33.8001 9.57327 35.2587 5.72 36.991 5.07918Z" fill="#FF0000"/>
<path d="M110.246 33.6646C110.246 34.7922 111.158 35.7085 112.281 35.7085C113.401 35.7085 114.313 34.7922 114.313 33.6646C114.313 32.5366 113.401 31.6182 112.281 31.6182C111.158 31.6182 110.246 32.5366 110.246 33.6646ZM110.639 33.6646C110.639 32.7523 111.377 32.0132 112.281 32.0132C113.182 32.0132 113.92 32.7523 113.92 33.6646C113.92 34.5722 113.182 35.3134 112.281 35.3134C111.377 35.3134 110.639 34.5722 110.639 33.6646Z" fill="#FF0000"/>
<path d="M111.402 32.4878H112.382C112.541 32.4878 112.674 32.5132 112.778 32.5646C112.976 32.665 113.077 32.8506 113.077 33.1199C113.077 33.2609 113.048 33.3762 112.998 33.4661C112.944 33.5556 112.868 33.6263 112.771 33.6817C112.854 33.718 112.919 33.7691 112.962 33.8289C113.005 33.8887 113.027 33.9891 113.034 34.1257L113.045 34.4443C113.048 34.5339 113.056 34.6002 113.066 34.6451C113.084 34.7198 113.117 34.7687 113.16 34.7901V34.8416H112.796C112.789 34.8202 112.778 34.7945 112.775 34.7626C112.767 34.7303 112.767 34.6683 112.764 34.5766L112.742 34.1815C112.739 34.0275 112.685 33.9231 112.591 33.8717C112.537 33.8419 112.454 33.8289 112.339 33.8289H111.694V34.8416H111.402V32.4878ZM112.346 33.5643C112.479 33.5643 112.584 33.5342 112.659 33.4744C112.739 33.4146 112.775 33.3077 112.775 33.154C112.775 32.9854 112.724 32.872 112.613 32.8122C112.559 32.7803 112.479 32.7654 112.382 32.7654H111.694V33.5643H112.346Z" fill="#FF0000"/>
</svg>
