<svg width="145" height="30" viewBox="0 0 145 30" fill="none" xmlns="http://www.w3.org/2000/svg">
<path fill-rule="evenodd" clip-rule="evenodd" d="M133.868 18.0698C133.868 20.7006 132.235 21.9975 130.566 21.9975C128.934 21.9975 127.301 20.7006 127.301 18.0698C127.301 15.5159 128.895 14.1052 130.566 14.1052C132.274 14.1052 133.868 15.5159 133.868 18.0698ZM141.989 17.9945C141.989 13.1141 138.003 7.43457 130.603 7.43457C123.089 7.43457 119.178 13.2677 119.178 18.0314C119.178 22.8719 123.126 28.6681 130.566 28.6681C138.003 28.6681 141.989 22.9118 141.989 17.9945Z" fill="#D71921"/>
<path d="M118.466 15.3225L118.462 8.87485C116.844 7.97972 114.868 7.43466 112.579 7.43466C105.064 7.43466 101.155 13.2648 101.155 18.0315C101.155 22.872 105.102 28.6668 112.542 28.6668C114.856 28.6668 116.834 28.1084 118.462 27.1955V20.7435C118.462 20.7435 115.566 21.9001 113.887 21.9001C110.801 21.9001 109.279 19.968 109.279 17.9946C109.279 16.064 110.798 14.1319 113.882 14.1319C115.599 14.1319 118.466 15.321 118.466 15.321V15.3225ZM9.98782 26.1586L10.2761 26.3551C12.5096 27.8736 15.1458 28.6831 17.8429 28.6786C19.6179 28.6788 21.3755 28.3278 23.0155 27.6457C24.6554 26.9635 26.1454 25.9636 27.4005 24.7031C28.6556 23.4425 29.6512 21.946 30.3304 20.2989C31.0095 18.6519 31.359 16.8866 31.3588 15.1039C31.3609 13.1859 30.9572 11.2894 30.1745 9.53997C29.3918 7.79052 28.2479 6.22806 26.8187 4.95605L9.47748 14.2043V18.7745L26.5319 9.69465C27.698 11.5827 28.2227 13.7997 28.0274 16.0127C27.832 18.2258 26.9271 20.3155 25.4485 21.968C23.9699 23.6205 21.9974 24.7467 19.8273 25.1774C17.6571 25.6081 15.4064 25.32 13.4131 24.3565L9.98782 26.1586Z" fill="#D71921"/>
<path d="M22.2433 5.83931C20.2508 4.88203 18.0031 4.59882 15.837 5.0321C13.6708 5.46539 11.7026 6.59184 10.2273 8.24275C8.75197 9.89366 7.84887 11.9802 7.65324 14.1898C7.45762 16.3994 7.98001 18.6133 9.14216 20.4997L9.13481 20.51L26.3069 11.3608L26.2996 15.9295L8.85537 25.2457C7.42943 23.9733 6.28849 22.4115 5.5079 20.6635C4.72731 18.9155 4.32483 17.021 4.32704 15.1053C4.32684 13.3227 4.67626 11.5575 5.35534 9.91056C6.03441 8.26361 7.02985 6.76713 8.2848 5.50659C9.53975 4.24604 11.0296 3.24611 12.6694 2.5639C14.3091 1.88169 16.0666 1.53055 17.8415 1.53055C20.6373 1.53055 23.2346 2.38285 25.3906 3.8452L25.6819 4.04313L22.2433 5.83931ZM39.5389 26.8676C40.6052 27.4422 42.851 28.6652 47.6088 28.6652C56.9331 28.6652 57.6935 22.0891 57.6935 20.7922C57.6935 16.6237 54.1167 14.5587 52.1754 13.4509C49.7781 12.0772 48.2559 11.2352 48.2559 9.93536C48.2559 9.20861 48.903 8.2544 50.4252 8.2544C52.7078 8.2544 55.1447 10.2795 56.5522 11.6163V4.54535C54.9138 3.01654 52.1371 1.52612 48.7118 1.52612C43.4599 1.52612 39.6537 4.6975 39.6537 9.74481C39.6537 10.8526 39.6537 13.9487 43.9173 16.51C47.3029 18.5351 48.4059 19.1851 48.4059 20.2929C48.4059 20.8276 47.9897 21.9384 45.6292 21.9384C43.4231 21.9384 41.3671 21.0197 39.5404 19.7597L39.5389 26.8676ZM90.3802 12.8689C91.7994 12.8689 93.1245 14.0403 93.1245 16.1644H87.6726C87.6726 14.0403 88.9933 12.8689 90.3817 12.8689H90.3802ZM100.162 19.5307C100.624 12.4376 95.4895 7.53209 90.186 7.53209C84.1929 7.53209 79.7263 12.0166 79.7263 17.9103C79.7263 23.9296 84.3179 28.6667 91.2332 28.6667C95.1527 28.6667 97.7102 28.0773 99.9737 26.9621L100.015 21.8055C97.7102 22.9621 94.7967 23.5736 92.7201 23.5736C89.6198 23.5736 87.524 21.6149 87.6711 19.5307H100.162ZM71.0358 21.2619C70.9299 23.2176 69.7063 24.1955 68.1326 24.1955C66.8722 24.1955 65.9648 23.3269 65.9648 22.4569C65.9648 21.1895 66.7678 20.7922 68.3077 20.4288C69.2519 20.2117 70.1946 19.9591 71.0344 19.5233L71.0358 21.2619ZM79.6278 22.6947C78.6277 22.5529 78.2526 22.1334 78.2806 19.9103L78.2762 15.2988C78.2762 9.2869 72.8669 7.43164 69.0842 7.43164C67.2281 7.43164 62.2115 7.90727 60.3908 11.12C59.7187 12.3091 59.4481 13.0905 59.3922 14.4819H65.8148C66.2751 13.12 67.3737 12.3874 68.5165 12.3874C69.4886 12.3874 70.4122 12.894 70.9785 13.8527C71.0667 14.0063 71.1123 14.1717 71.1123 14.349C71.1123 15.6075 70.2887 15.8542 69.2945 16.0462C65.5765 16.77 58.5656 16.541 58.5656 22.7951C58.5656 26.6061 61.5644 28.6667 65.2456 28.6667C67.6017 28.6667 69.6769 28.2457 71.2226 26.4156L71.3917 26.6357C72.0771 27.2871 73.2757 28.2841 77.0555 28.2841H79.6292L79.6278 22.6947Z" fill="#D71921"/>
</svg>
