<svg width="152" height="36" viewBox="0 0 152 36" fill="none" xmlns="http://www.w3.org/2000/svg">
<path fill-rule="evenodd" clip-rule="evenodd" d="M144.85 7.44959V11.6464C142.664 10.8256 140.718 10.4106 139.015 10.4106C138.006 10.4106 137.202 10.5964 136.598 10.9557C135.994 11.3181 135.686 11.7641 135.686 12.2906C135.686 12.9906 136.368 13.6131 137.741 14.1707L141.708 16.091C144.915 17.6118 146.506 19.6312 146.506 22.1679C146.506 24.2771 145.662 25.959 143.959 27.2041C142.268 28.4616 139.992 29.0841 137.159 29.0841C135.851 29.0841 134.677 29.0284 133.634 28.9107C132.591 28.7992 131.392 28.57 130.063 28.2417V23.8497C132.501 24.6705 134.721 25.0856 136.72 25.0856C139.105 25.0856 140.291 24.398 140.291 23.0104C140.291 22.3197 139.805 21.7622 138.818 21.3254L134.412 19.4577C132.787 18.7268 131.579 17.841 130.788 16.791C130.01 15.7317 129.614 14.5176 129.614 13.13C129.614 11.188 130.436 9.62384 132.062 8.43447C133.699 7.25439 135.873 6.66284 138.575 6.66284C139.454 6.66284 140.465 6.74024 141.586 6.88273C142.717 7.03451 143.803 7.22034 144.85 7.44959Z" fill="#009999"/>
<path fill-rule="evenodd" clip-rule="evenodd" d="M20.0656 7.44959V11.6464C17.8798 10.8256 15.9368 10.4106 14.2337 10.4106C13.2217 10.4106 12.4215 10.5964 11.8174 10.9557C11.2134 11.3181 10.9051 11.7641 10.9051 12.2906C10.9051 12.9906 11.5964 13.6131 12.9695 14.1707L16.9364 16.091C20.131 17.6118 21.7252 19.6312 21.7252 22.1679C21.7252 24.2771 20.8783 25.959 19.1876 27.2041C17.4844 28.4616 15.2207 29.0841 12.378 29.0841C11.0702 29.0841 9.89319 29.0284 8.8501 28.9107C7.80702 28.7992 6.6207 28.57 5.28187 28.2417V23.8497C7.72921 24.6705 9.94928 25.0856 11.9358 25.0856C14.3209 25.0856 15.5072 24.398 15.5072 23.0104C15.5072 22.3197 15.0246 21.7622 14.0468 21.3254L9.64101 19.4577C8.00317 18.7268 6.79506 17.841 6.01668 16.791C5.22577 15.7317 4.83969 14.5176 4.83969 13.13C4.83969 11.188 5.6555 9.62384 7.29015 8.43447C8.91554 7.25439 11.092 6.66284 13.7947 6.66284C14.6821 6.66284 15.6816 6.74024 16.8149 6.88273C17.9359 7.03451 19.0225 7.22034 20.0656 7.44959Z" fill="#009999"/>
<path fill-rule="evenodd" clip-rule="evenodd" d="M24.6116 7.05615H31.0725V28.6908H24.6116V7.05615Z" fill="#009999"/>
<path fill-rule="evenodd" clip-rule="evenodd" d="M51.8875 7.05615V11.0548H42.2879V15.8525H50.614V19.4577H42.2879V24.494H52.0836V28.6908H36.07V7.05615H51.8875Z" fill="#009999"/>
<path fill-rule="evenodd" clip-rule="evenodd" d="M82.0496 7.05615V28.6908H76.0181V14.4215L69.76 28.889H66.0361L60.0173 14.4215V28.6908H55.655V7.05615H63.5419L68.9255 20.3002L74.5582 7.05615H82.0496Z" fill="#009999"/>
<path fill-rule="evenodd" clip-rule="evenodd" d="M102.856 7.05615V11.0548H93.3085V15.8525H101.634V19.4577H93.3085V24.494H103.052V28.6908H87.0381V7.05615H102.856Z" fill="#009999"/>
<path fill-rule="evenodd" clip-rule="evenodd" d="M125.526 7.05615V28.6908H118.673L110.982 14.8149V28.6908H106.623V7.05615H113.676L121.167 20.6936V7.05615H125.526Z" fill="#009999"/>
</svg>
