<svg width="14" height="14" viewBox="0 0 14 14" fill="none" xmlns="http://www.w3.org/2000/svg">
<path d="M3.5 5.83334L7 9.33334L10.5 5.83334" stroke="white" stroke-width="2" stroke-linecap="square"/>
</svg>
