<svg width="80" height="80" viewBox="0 0 80 80" fill="none" xmlns="http://www.w3.org/2000/svg">
<path d="M74.0909 63.262L53.1659 56.4028V49.1844C54.6603 46.9755 55.6678 44.3763 56.0233 41.5625H59.8C63.098 41.5625 65.7812 38.8792 65.7812 35.5811V29.1748C65.7812 27.9264 65.3962 26.7666 64.7395 25.8066V24.7395C64.7395 11.0981 53.6414 0 40 0C26.3586 0 15.2605 11.0981 15.2605 24.7395V25.8066C14.6038 26.7667 14.2188 27.9266 14.2188 29.1748V35.5811C14.2188 38.8792 16.902 41.5625 20.2002 41.5625H23.9769C24.3373 44.4153 25.3686 47.0472 26.8973 49.2758V56.3822L5.90891 63.262C2.37469 64.4208 0 67.6983 0 71.4175V80H80V71.4175C80 67.6983 77.6253 64.4208 74.0909 63.262ZM31.5848 53.8556C34.0377 55.4398 36.9195 56.3542 40 56.3542C43.1072 56.3542 46.0119 55.4236 48.4784 53.8141V57.0484C46.6989 58.5822 43.1081 61.1161 40 61.1161C36.8975 61.1161 33.3427 58.5866 31.5848 57.0559V53.8556ZM51.4786 27.3738C48.0819 26.7708 45.4936 23.7987 45.4936 20.2316H40.8061C40.8061 24.2325 37.5511 27.4875 33.5502 27.4875H28.5214V25.2284C28.5214 18.8992 33.6706 13.75 40 13.75C46.3294 13.75 51.4786 18.8992 51.4786 25.2284V27.3738ZM28.5214 32.3383V32.1752H33.5502C37.4797 32.1752 40.972 30.2677 43.1498 27.33C45.0898 29.9469 48.0727 31.7461 51.4786 32.108V39.2972C51.4786 40.2183 51.3817 41.115 51.2038 41.9792H42.6898V46.6667H49.213C47.1189 49.6987 43.7691 51.6667 40.0002 51.6667C33.6709 51.6667 28.5216 46.1178 28.5216 39.2972V32.3383H28.5214ZM61.0938 35.5811C61.0938 36.2945 60.5133 36.875 59.7998 36.875H56.1661V27.8809H59.7998C60.5133 27.8809 61.0938 28.4614 61.0938 29.1748V35.5811ZM40 4.6875C50.5383 4.6875 59.2039 12.8589 59.9934 23.1983C59.9291 23.1962 59.8648 23.1934 59.7998 23.1934H56.0383C55.0345 15.2366 48.2248 9.0625 40 9.0625C31.7752 9.0625 24.9655 15.2366 23.9616 23.1934H20.2C20.1352 23.1934 20.0708 23.1962 20.0064 23.1983C20.7961 12.8589 29.4617 4.6875 40 4.6875ZM18.9062 35.5811V29.1748C18.9062 28.4614 19.4867 27.8809 20.2002 27.8809H23.8339V36.875H20.2002C19.4867 36.875 18.9062 36.2945 18.9062 35.5811ZM75.3125 75.3125H63.8616V70.4688H59.1741V75.3125H20.8259V70.4688H16.1384V75.3125H4.6875V71.4175C4.6875 69.7295 5.76516 68.2422 7.36922 67.7164L28.6775 60.7316C30.6994 62.4559 35.2369 65.8036 40.0002 65.8036C44.7533 65.8036 49.3195 62.4672 51.3611 60.7442L72.6309 67.7166C74.2348 68.2422 75.3125 69.7297 75.3125 71.4175V75.3125Z" fill="#4D647A"/>
</svg>
